<?xml version="1.0" encoding="UTF-8" standalone="no"?>
<!DOCTYPE svg PUBLIC "-//W3C//DTD SVG 1.0//EN" "http://www.w3.org/TR/2001/PR-SVG-20010719/DTD/svg10.dtd">
<svg width="116cm" height="44cm" viewBox="-180 -84 2311 868" xmlns="http://www.w3.org/2000/svg" xmlns:xlink="http://www.w3.org/1999/xlink">
  <g>
    <rect style="fill: #ffffff" x="678.98" y="-62.2308" width="347.524" height="145.76"/>
    <rect style="fill: none; fill-opacity:0; stroke-width: 2; stroke: #000000" x="678.98" y="-62.2308" width="347.524" height="145.76"/>
    <rect style="fill: #ffffff" x="678.98" y="-82.2308" width="40" height="20"/>
    <rect style="fill: none; fill-opacity:0; stroke-width: 2; stroke: #000000" x="678.98" y="-82.2308" width="40" height="20"/>
    <text font-size="12.7998" style="fill: #000000;text-anchor:start;font-family:monospace;font-style:normal;font-weight:normal" x="680.98" y="-67.2308">main</text>
  </g>
  <g>
    <rect style="fill: #ffffff" x="-179" y="131.609" width="779.831" height="651.94"/>
    <rect style="fill: none; fill-opacity:0; stroke-width: 2; stroke: #000000" x="-179" y="131.609" width="779.831" height="651.94"/>
    <rect style="fill: #ffffff" x="-179" y="111.609" width="81" height="20"/>
    <rect style="fill: none; fill-opacity:0; stroke-width: 2; stroke: #000000" x="-179" y="111.609" width="81" height="20"/>
    <text font-size="12.7998" style="fill: #000000;text-anchor:start;font-family:monospace;font-style:normal;font-weight:normal" x="-177" y="126.609">controller</text>
  </g>
  <g>
    <rect style="fill: #ffffff" x="668.078" y="259.97" width="443.163" height="453.642"/>
    <rect style="fill: none; fill-opacity:0; stroke-width: 2; stroke: #000000" x="668.078" y="259.97" width="443.163" height="453.642"/>
    <rect style="fill: #ffffff" x="668.078" y="239.97" width="40" height="20"/>
    <rect style="fill: none; fill-opacity:0; stroke-width: 2; stroke: #000000" x="668.078" y="239.97" width="40" height="20"/>
    <text font-size="12.7998" style="fill: #000000;text-anchor:start;font-family:monospace;font-style:normal;font-weight:normal" x="670.078" y="254.97">view</text>
  </g>
  <g>
    <rect style="fill: #ffffff" x="1176.26" y="88.9492" width="952.916" height="565.775"/>
    <rect style="fill: none; fill-opacity:0; stroke-width: 2; stroke: #000000" x="1176.26" y="88.9492" width="952.916" height="565.775"/>
    <rect style="fill: #ffffff" x="1176.26" y="68.9492" width="42.5" height="20"/>
    <rect style="fill: none; fill-opacity:0; stroke-width: 2; stroke: #000000" x="1176.26" y="68.9492" width="42.5" height="20"/>
    <text font-size="12.7998" style="fill: #000000;text-anchor:start;font-family:monospace;font-style:normal;font-weight:normal" x="1178.26" y="83.9492">model</text>
  </g>
  <g>
    <rect style="fill: #ffffff" x="-131.902" y="336.83" width="164" height="28"/>
    <rect style="fill: none; fill-opacity:0; stroke-width: 1; stroke: #000000" x="-131.902" y="336.83" width="164" height="28"/>
    <text font-size="16" style="fill: #000000;text-anchor:middle;font-family:sans-serif;font-style:normal;font-weight:700" x="-49.9018" y="355.83">Simulation</text>
    <rect style="fill: #ffffff" x="-131.902" y="364.83" width="164" height="68"/>
    <rect style="fill: none; fill-opacity:0; stroke-width: 1; stroke: #000000" x="-131.902" y="364.83" width="164" height="68"/>
    <text font-size="12.8" style="fill: #000000;text-anchor:start;font-family:monospace;font-style:normal;font-weight:normal" x="-129.402" y="378.83">-generations: Grid[]</text>
    <text font-size="12.8" style="fill: #000000;text-anchor:start;font-family:monospace;font-style:normal;font-weight:normal" x="-129.402" y="394.83">-mode: Mode</text>
    <text font-size="12.8" style="fill: #000000;text-anchor:start;font-family:monospace;font-style:normal;font-weight:normal" x="-129.402" y="410.83">-size: Size</text>
    <text font-size="12.8" style="fill: #000000;text-anchor:start;font-family:monospace;font-style:normal;font-weight:normal" x="-129.402" y="426.83">-actual: int</text>
    <rect style="fill: #ffffff" x="-131.902" y="432.83" width="164" height="52"/>
    <rect style="fill: none; fill-opacity:0; stroke-width: 1; stroke: #000000" x="-131.902" y="432.83" width="164" height="52"/>
    <text font-size="12.8" style="fill: #000000;text-anchor:start;font-family:monospace;font-style:normal;font-weight:normal" x="-129.402" y="446.83">+stop(): void</text>
    <text font-size="12.8" style="fill: #000000;text-anchor:start;font-family:monospace;font-style:normal;font-weight:normal" x="-129.402" y="462.83">+clear(): void</text>
    <text font-size="12.8" style="fill: #000000;text-anchor:start;font-family:monospace;font-style:normal;font-weight:normal" x="-129.402" y="478.83">+runstep(): void</text>
  </g>
  <g>
    <rect style="fill: #ffffff" x="1219.62" y="332.55" width="333.4" height="28"/>
    <rect style="fill: none; fill-opacity:0; stroke-width: 1; stroke: #000000" x="1219.62" y="332.55" width="333.4" height="28"/>
    <text font-size="16" style="fill: #000000;text-anchor:middle;font-family:sans-serif;font-style:normal;font-weight:700" x="1386.32" y="351.55">Grid</text>
    <rect style="fill: #ffffff" x="1219.62" y="360.55" width="333.4" height="36"/>
    <rect style="fill: none; fill-opacity:0; stroke-width: 1; stroke: #000000" x="1219.62" y="360.55" width="333.4" height="36"/>
    <text font-size="12.8" style="fill: #000000;text-anchor:start;font-family:monospace;font-style:normal;font-weight:normal" x="1222.12" y="374.55">-size: Size</text>
    <text font-size="12.8" style="fill: #000000;text-anchor:start;font-family:monospace;font-style:normal;font-weight:normal" x="1222.12" y="390.55">-cells: Cell[][]</text>
    <rect style="fill: #ffffff" x="1219.62" y="396.55" width="333.4" height="36"/>
    <rect style="fill: none; fill-opacity:0; stroke-width: 1; stroke: #000000" x="1219.62" y="396.55" width="333.4" height="36"/>
    <text font-size="12.8" style="fill: #000000;text-anchor:start;font-family:monospace;font-style:normal;font-weight:normal" x="1222.12" y="410.55">-setSize(w:int,h:int): void</text>
    <text font-size="12.8" style="fill: #000000;text-anchor:start;font-family:monospace;font-style:normal;font-weight:normal" x="1222.12" y="426.55">+setCell(pos:Position,type:CellType): void</text>
  </g>
  <g>
    <rect style="fill: #ffffff" x="1408.59" y="543.438" width="125.5" height="28"/>
    <rect style="fill: none; fill-opacity:0; stroke-width: 1; stroke: #000000" x="1408.59" y="543.438" width="125.5" height="28"/>
    <text font-size="16" style="fill: #000000;text-anchor:middle;font-family:sans-serif;font-style:normal;font-weight:700" x="1471.34" y="562.438">Cell</text>
    <rect style="fill: #ffffff" x="1408.59" y="571.438" width="125.5" height="20"/>
    <rect style="fill: none; fill-opacity:0; stroke-width: 1; stroke: #000000" x="1408.59" y="571.438" width="125.5" height="20"/>
    <text font-size="12.8" style="fill: #000000;text-anchor:start;font-family:monospace;font-style:normal;font-weight:normal" x="1411.09" y="585.438">-type: CellType</text>
    <rect style="fill: #ffffff" x="1408.59" y="591.438" width="125.5" height="8"/>
    <rect style="fill: none; fill-opacity:0; stroke-width: 1; stroke: #000000" x="1408.59" y="591.438" width="125.5" height="8"/>
  </g>
  <g>
    <rect style="fill: #ffffff" x="794.258" y="627.59" width="87" height="28"/>
    <rect style="fill: none; fill-opacity:0; stroke-width: 1; stroke: #000000" x="794.258" y="627.59" width="87" height="28"/>
    <text font-size="16" style="fill: #000000;text-anchor:middle;font-family:sans-serif;font-style:normal;font-weight:700" x="837.758" y="646.59">Display</text>
    <rect style="fill: #ffffff" x="794.258" y="655.59" width="87" height="8"/>
    <rect style="fill: none; fill-opacity:0; stroke-width: 1; stroke: #000000" x="794.258" y="655.59" width="87" height="8"/>
    <rect style="fill: #ffffff" x="794.258" y="663.59" width="87" height="20"/>
    <rect style="fill: none; fill-opacity:0; stroke-width: 1; stroke: #000000" x="794.258" y="663.59" width="87" height="20"/>
    <text font-size="12.8" style="fill: #000000;text-anchor:start;font-family:monospace;font-style:normal;font-weight:normal" x="796.758" y="677.59">+refresh()</text>
  </g>
  <g>
    <rect style="fill: #ffffff" x="731.784" y="-24.5308" width="225.6" height="28"/>
    <rect style="fill: none; fill-opacity:0; stroke-width: 1; stroke: #000000" x="731.784" y="-24.5308" width="225.6" height="28"/>
    <text font-size="16" style="fill: #000000;text-anchor:middle;font-family:sans-serif;font-style:normal;font-weight:700" x="844.584" y="-5.5308">Main</text>
    <rect style="fill: #ffffff" x="731.784" y="3.4692" width="225.6" height="8"/>
    <rect style="fill: none; fill-opacity:0; stroke-width: 1; stroke: #000000" x="731.784" y="3.4692" width="225.6" height="8"/>
    <rect style="fill: #ffffff" x="731.784" y="11.4692" width="225.6" height="20"/>
    <rect style="fill: none; fill-opacity:0; stroke-width: 1; stroke: #000000" x="731.784" y="11.4692" width="225.6" height="20"/>
    <text font-size="12.8" style="fill: #000000;text-anchor:start;font-family:monospace;font-style:normal;font-weight:normal" x="734.284" y="25.4692">+main(args:String[]): static</text>
  </g>
  <g>
    <rect style="fill: #ffffff" x="1237.63" y="143.549" width="110.1" height="44"/>
    <rect style="fill: none; fill-opacity:0; stroke-width: 1; stroke: #000000" x="1237.63" y="143.549" width="110.1" height="44"/>
    <text font-size="12.8" style="fill: #000000;text-anchor:middle;font-family:monospace;font-style:normal;font-weight:normal" x="1292.68" y="159.549">&lt;&lt;singleton&gt;&gt;</text>
    <text font-size="16" style="fill: #000000;text-anchor:middle;font-family:sans-serif;font-style:normal;font-weight:700" x="1292.68" y="178.549">Model</text>
    <rect style="fill: #ffffff" x="1237.63" y="187.549" width="110.1" height="8"/>
    <rect style="fill: none; fill-opacity:0; stroke-width: 1; stroke: #000000" x="1237.63" y="187.549" width="110.1" height="8"/>
    <rect style="fill: #ffffff" x="1237.63" y="195.549" width="110.1" height="68"/>
    <rect style="fill: none; fill-opacity:0; stroke-width: 1; stroke: #000000" x="1237.63" y="195.549" width="110.1" height="68"/>
    <text font-size="12.8" style="fill: #000000;text-anchor:start;font-family:monospace;font-style:normal;font-weight:normal" x="1240.13" y="209.549">+save()</text>
    <text font-size="12.8" style="fill: #000000;text-anchor:start;font-family:monospace;font-style:normal;font-weight:normal" x="1240.13" y="225.549">+export()</text>
    <text font-size="12.8" style="fill: #000000;text-anchor:start;font-family:monospace;font-style:normal;font-weight:normal" x="1240.13" y="241.549">+open()</text>
    <text font-size="12.8" style="fill: #000000;text-anchor:start;font-family:monospace;font-style:normal;font-weight:normal" x="1240.13" y="257.549">+new()</text>
  </g>
  <g>
    <rect style="fill: #ffffff" x="718.842" y="297.13" width="110.1" height="44"/>
    <rect style="fill: none; fill-opacity:0; stroke-width: 1; stroke: #000000" x="718.842" y="297.13" width="110.1" height="44"/>
    <text font-size="12.8" style="fill: #000000;text-anchor:middle;font-family:monospace;font-style:normal;font-weight:normal" x="773.892" y="313.13">&lt;&lt;singleton&gt;&gt;</text>
    <text font-size="16" style="fill: #000000;text-anchor:middle;font-family:sans-serif;font-style:normal;font-weight:700" x="773.892" y="332.13">View</text>
    <rect style="fill: #ffffff" x="718.842" y="341.13" width="110.1" height="8"/>
    <rect style="fill: none; fill-opacity:0; stroke-width: 1; stroke: #000000" x="718.842" y="341.13" width="110.1" height="8"/>
    <rect style="fill: #ffffff" x="718.842" y="349.13" width="110.1" height="20"/>
    <rect style="fill: none; fill-opacity:0; stroke-width: 1; stroke: #000000" x="718.842" y="349.13" width="110.1" height="20"/>
    <text font-size="12.8" style="fill: #000000;text-anchor:start;font-family:monospace;font-style:normal;font-weight:normal" x="721.342" y="363.13">+display()</text>
  </g>
  <g>
    <rect style="fill: #ffffff" x="187.114" y="154.59" width="356.5" height="44"/>
    <rect style="fill: none; fill-opacity:0; stroke-width: 1; stroke: #000000" x="187.114" y="154.59" width="356.5" height="44"/>
    <text font-size="12.8" style="fill: #000000;text-anchor:middle;font-family:monospace;font-style:normal;font-weight:normal" x="365.364" y="170.59">&lt;&lt;singleton&gt;&gt;</text>
    <text font-size="16" style="fill: #000000;text-anchor:middle;font-family:sans-serif;font-style:normal;font-weight:700" x="365.364" y="189.59">Controller</text>
    <rect style="fill: #ffffff" x="187.114" y="198.59" width="356.5" height="8"/>
    <rect style="fill: none; fill-opacity:0; stroke-width: 1; stroke: #000000" x="187.114" y="198.59" width="356.5" height="8"/>
    <rect style="fill: #ffffff" x="187.114" y="206.59" width="356.5" height="212"/>
    <rect style="fill: none; fill-opacity:0; stroke-width: 1; stroke: #000000" x="187.114" y="206.59" width="356.5" height="212"/>
    <text font-size="12.8" style="fill: #000000;text-anchor:start;font-family:monospace;font-style:normal;font-weight:normal" x="189.614" y="220.59">+run(): void</text>
    <text font-size="12.8" style="fill: #000000;text-anchor:start;font-family:monospace;font-style:normal;font-weight:normal" x="189.614" y="236.59">+startSimulation(maxstep:int,speed:int): void</text>
    <text font-size="12.8" style="fill: #000000;text-anchor:start;font-family:monospace;font-style:normal;font-weight:normal" x="189.614" y="252.59">+stopSimulation(): void</text>
    <text font-size="12.8" style="fill: #000000;text-anchor:start;font-family:monospace;font-style:normal;font-weight:normal" x="189.614" y="268.59">+clear(): void</text>
    <text font-size="12.8" style="fill: #000000;text-anchor:start;font-family:monospace;font-style:normal;font-weight:normal" x="189.614" y="284.59">+newGrid(size:Size): void</text>
    <text font-size="12.8" style="fill: #000000;text-anchor:start;font-family:monospace;font-style:normal;font-weight:normal" x="189.614" y="300.59">+setBrush(type:CellType): void</text>
    <text font-size="12.8" style="fill: #000000;text-anchor:start;font-family:monospace;font-style:normal;font-weight:normal" x="189.614" y="316.59">+getBrush(): CellType</text>
    <text font-size="12.8" style="fill: #000000;text-anchor:start;font-family:monospace;font-style:normal;font-weight:normal" x="189.614" y="332.59">+changeCell(pos:Position): void</text>
    <text font-size="12.8" style="fill: #000000;text-anchor:start;font-family:monospace;font-style:normal;font-weight:normal" x="189.614" y="348.59">+getMode(): Mode</text>
    <text font-size="12.8" style="fill: #000000;text-anchor:start;font-family:monospace;font-style:normal;font-weight:normal" x="189.614" y="364.59">+setMode(mode:Mode): void</text>
    <text font-size="12.8" style="fill: #000000;text-anchor:start;font-family:monospace;font-style:normal;font-weight:normal" x="189.614" y="380.59">+setStep(step:int): void</text>
    <text font-size="12.8" style="fill: #000000;text-anchor:start;font-family:monospace;font-style:normal;font-weight:normal" x="189.614" y="396.59">+setCounter(step:int): void</text>
    <text font-size="12.8" style="fill: #000000;text-anchor:start;font-family:monospace;font-style:normal;font-weight:normal" x="189.614" y="412.59">+getSimulation(): Simulation</text>
  </g>
  <g>
    <rect style="fill: #ffffff" x="719.246" y="464.59" width="140.9" height="44"/>
    <rect style="fill: none; fill-opacity:0; stroke-width: 1; stroke: #000000" x="719.246" y="464.59" width="140.9" height="44"/>
    <text font-size="12.8" style="fill: #000000;text-anchor:middle;font-family:monospace;font-style:normal;font-weight:normal" x="789.696" y="480.59">&lt;&lt;singleton&gt;&gt;</text>
    <text font-size="16" style="fill: #000000;text-anchor:middle;font-family:sans-serif;font-style:normal;font-weight:700" x="789.696" y="499.59">Window</text>
    <rect style="fill: #ffffff" x="719.246" y="508.59" width="140.9" height="20"/>
    <rect style="fill: none; fill-opacity:0; stroke-width: 1; stroke: #000000" x="719.246" y="508.59" width="140.9" height="20"/>
    <text font-size="12.8" style="fill: #000000;text-anchor:start;font-family:monospace;font-style:normal;font-weight:normal" x="721.746" y="522.59">-display: Display</text>
    <rect style="fill: #ffffff" x="719.246" y="528.59" width="140.9" height="8"/>
    <rect style="fill: none; fill-opacity:0; stroke-width: 1; stroke: #000000" x="719.246" y="528.59" width="140.9" height="8"/>
  </g>
  <g>
    <rect style="fill: #ffffff" x="1732.6" y="116.549" width="156.3" height="44"/>
    <rect style="fill: none; fill-opacity:0; stroke-width: 1; stroke: #000000" x="1732.6" y="116.549" width="156.3" height="44"/>
    <text font-size="12.8" style="fill: #000000;text-anchor:middle;font-family:monospace;font-style:normal;font-weight:normal" x="1810.75" y="132.549">&lt;&lt;singleton&gt;&gt;</text>
    <text font-size="16" style="fill: #000000;text-anchor:middle;font-family:sans-serif;font-style:normal;font-weight:700" x="1810.75" y="151.549">Database</text>
    <rect style="fill: #ffffff" x="1732.6" y="160.549" width="156.3" height="68"/>
    <rect style="fill: none; fill-opacity:0; stroke-width: 1; stroke: #000000" x="1732.6" y="160.549" width="156.3" height="68"/>
    <text font-size="12.8" style="fill: #000000;text-anchor:start;font-family:monospace;font-style:normal;font-weight:normal" x="1735.1" y="174.549">-url: String</text>
    <text font-size="12.8" style="fill: #000000;text-anchor:start;font-family:monospace;font-style:normal;font-weight:normal" x="1735.1" y="190.549">-username: String</text>
    <text font-size="12.8" style="fill: #000000;text-anchor:start;font-family:monospace;font-style:normal;font-weight:normal" x="1735.1" y="206.549">-password: String</text>
    <text font-size="12.8" style="fill: #000000;text-anchor:start;font-family:monospace;font-style:normal;font-weight:normal" x="1735.1" y="222.549">-querymap: QueryMap</text>
    <rect style="fill: #ffffff" x="1732.6" y="228.549" width="156.3" height="20"/>
    <rect style="fill: none; fill-opacity:0; stroke-width: 1; stroke: #000000" x="1732.6" y="228.549" width="156.3" height="20"/>
    <text font-size="12.8" style="fill: #000000;text-anchor:start;font-family:monospace;font-style:normal;font-weight:normal" x="1735.1" y="242.549">+init(): void</text>
  </g>
  <g>
    <rect style="fill: #ffffff" x="1250.68" y="531.312" width="63.9" height="28"/>
    <rect style="fill: none; fill-opacity:0; stroke-width: 2; stroke: #000000" x="1250.68" y="531.312" width="63.9" height="28"/>
    <text font-size="16" style="fill: #000000;text-anchor:middle;font-family:sans-serif;font-style:normal;font-weight:700" x="1282.63" y="550.312">Size</text>
    <rect style="fill: #ffffff" x="1250.68" y="559.312" width="63.9" height="36"/>
    <rect style="fill: none; fill-opacity:0; stroke-width: 2; stroke: #000000" x="1250.68" y="559.312" width="63.9" height="36"/>
    <text font-size="12.8" style="fill: #000000;text-anchor:start;font-family:monospace;font-style:normal;font-weight:normal" x="1253.68" y="573.312">-w: int</text>
    <text font-size="12.8" style="fill: #000000;text-anchor:start;font-family:monospace;font-style:normal;font-weight:normal" x="1253.68" y="589.312">-h: int</text>
    <rect style="fill: #ffffff" x="1250.68" y="595.312" width="63.9" height="8"/>
    <rect style="fill: none; fill-opacity:0; stroke-width: 2; stroke: #000000" x="1250.68" y="595.312" width="63.9" height="8"/>
  </g>
  <g>
    <polyline style="fill: none; fill-opacity:0; stroke-width: 2; stroke: #000000" points="1386.32,457.722 1386.32,488.931 1282.63,488.931 1282.63,531.312 "/>
    <polygon style="fill: #000000" points="1386.32,432.55 1391.12,446.55 1386.32,460.55 1381.52,446.55 "/>
    <polygon style="fill: none; fill-opacity:0; stroke-width: 2; stroke: #000000" points="1386.32,432.55 1391.12,446.55 1386.32,460.55 1381.52,446.55 "/>
    <text font-size="12.7998" style="fill: #000000;text-anchor:middle;font-family:monospace;font-style:normal;font-weight:normal" x="1334.47" y="485.931"/>
    <text font-size="12.7998" style="fill: #000000;text-anchor:start;font-family:monospace;font-style:normal;font-weight:normal" x="1397.32" y="444.55">1</text>
    <text font-size="12.7998" style="fill: #000000;text-anchor:start;font-family:monospace;font-style:normal;font-weight:normal" x="1286.63" y="527.312">1</text>
  </g>
  <g>
    <polyline style="fill: none; fill-opacity:0; stroke-width: 2; stroke: #000000" points="1578.19,406.55 1588.02,406.55 1588.02,474.494 1471.34,474.494 1471.34,543.438 "/>
    <polygon style="fill: #000000" points="1553.02,406.55 1567.02,401.75 1581.02,406.55 1567.02,411.35 "/>
    <polygon style="fill: none; fill-opacity:0; stroke-width: 2; stroke: #000000" points="1553.02,406.55 1567.02,401.75 1581.02,406.55 1567.02,411.35 "/>
    <text font-size="12.7998" style="fill: #000000;text-anchor:middle;font-family:monospace;font-style:normal;font-weight:normal" x="1529.68" y="471.494"/>
    <text font-size="12.7998" style="fill: #000000;text-anchor:start;font-family:monospace;font-style:normal;font-weight:normal" x="1585.02" y="403.55">1..*</text>
    <text font-size="12.7998" style="fill: #000000;text-anchor:start;font-family:monospace;font-style:normal;font-weight:normal" x="1475.34" y="539.438">1</text>
  </g>
  <g>
    <rect style="fill: #ffffff" x="1825.27" y="440.75" width="179.4" height="28"/>
    <rect style="fill: none; fill-opacity:0; stroke-width: 2; stroke: #000000" x="1825.27" y="440.75" width="179.4" height="28"/>
    <text font-size="16" style="fill: #000000;text-anchor:middle;font-family:sans-serif;font-style:normal;font-weight:700" x="1914.97" y="459.75">Density</text>
    <rect style="fill: #ffffff" x="1825.27" y="468.75" width="179.4" height="100"/>
    <rect style="fill: none; fill-opacity:0; stroke-width: 2; stroke: #000000" x="1825.27" y="468.75" width="179.4" height="100"/>
    <text font-size="12.8" style="fill: #000000;text-anchor:start;font-family:monospace;font-style:normal;font-weight:normal" x="1828.27" y="482.75">-empty: Double</text>
    <text font-size="12.8" style="fill: #000000;text-anchor:start;font-family:monospace;font-style:normal;font-weight:normal" x="1828.27" y="498.75">-sapling: Double</text>
    <text font-size="12.8" style="fill: #000000;text-anchor:start;font-family:monospace;font-style:normal;font-weight:normal" x="1828.27" y="514.75">-bush: Double</text>
    <text font-size="12.8" style="fill: #000000;text-anchor:start;font-family:monospace;font-style:normal;font-weight:normal" x="1828.27" y="530.75">-tree: Double</text>
    <text font-size="12.8" style="fill: #000000;text-anchor:start;font-family:monospace;font-style:normal;font-weight:normal" x="1828.27" y="546.75">-infested</text>
    <text font-size="12.8" style="fill: #000000;text-anchor:start;font-family:monospace;font-style:normal;font-weight:normal" x="1828.27" y="562.75">-fire</text>
    <rect style="fill: #ffffff" x="1825.27" y="568.75" width="179.4" height="36"/>
    <rect style="fill: none; fill-opacity:0; stroke-width: 2; stroke: #000000" x="1825.27" y="568.75" width="179.4" height="36"/>
    <text font-size="12.8" style="fill: #000000;text-anchor:start;font-family:monospace;font-style:normal;font-weight:normal" x="1828.27" y="582.75">+toString(): String</text>
    <text font-size="12.8" style="fill: #000000;text-anchor:start;font-family:monospace;font-style:normal;font-weight:normal" x="1828.27" y="598.75">+toCsvString(): String</text>
  </g>
  <g>
    <polyline style="fill: none; fill-opacity:0; stroke-width: 2; stroke: #000000" points="1578.19,386.55 1914.97,386.55 1914.97,440.75 "/>
    <polygon style="fill: #000000" points="1553.02,386.55 1567.02,381.75 1581.02,386.55 1567.02,391.35 "/>
    <polygon style="fill: none; fill-opacity:0; stroke-width: 2; stroke: #000000" points="1553.02,386.55 1567.02,381.75 1581.02,386.55 1567.02,391.35 "/>
    <text font-size="12.7998" style="fill: #000000;text-anchor:middle;font-family:monospace;font-style:normal;font-weight:normal" x="1734" y="383.55"/>
    <text font-size="12.7998" style="fill: #000000;text-anchor:start;font-family:monospace;font-style:normal;font-weight:normal" x="1585.02" y="383.55">1</text>
    <text font-size="12.7998" style="fill: #000000;text-anchor:start;font-family:monospace;font-style:normal;font-weight:normal" x="1918.97" y="436.75">1</text>
  </g>
  <g>
    <rect style="fill: #ffffff" x="1409.31" y="226.05" width="83.3" height="28"/>
    <rect style="fill: none; fill-opacity:0; stroke-width: 2; stroke: #000000" x="1409.31" y="226.05" width="83.3" height="28"/>
    <text font-size="16" style="fill: #000000;text-anchor:middle;font-family:sans-serif;font-style:normal;font-weight:700" x="1450.96" y="245.05">Position</text>
    <rect style="fill: #ffffff" x="1409.31" y="254.05" width="83.3" height="36"/>
    <rect style="fill: none; fill-opacity:0; stroke-width: 2; stroke: #000000" x="1409.31" y="254.05" width="83.3" height="36"/>
    <text font-size="12.8" style="fill: #000000;text-anchor:start;font-family:monospace;font-style:normal;font-weight:normal" x="1412.31" y="268.05">-x: int</text>
    <text font-size="12.8" style="fill: #000000;text-anchor:start;font-family:monospace;font-style:normal;font-weight:normal" x="1412.31" y="284.05">-y: int</text>
    <rect style="fill: #ffffff" x="1409.31" y="290.05" width="83.3" height="8"/>
    <rect style="fill: none; fill-opacity:0; stroke-width: 2; stroke: #000000" x="1409.31" y="290.05" width="83.3" height="8"/>
  </g>
  <g>
    <polyline style="fill: none; fill-opacity:0; stroke-width: 2; stroke: #000000" points="789.696,561.762 789.696,589.09 837.758,589.09 837.758,627.59 "/>
    <polygon style="fill: #ffffff" points="789.696,536.59 794.496,550.59 789.696,564.59 784.896,550.59 "/>
    <polygon style="fill: none; fill-opacity:0; stroke-width: 2; stroke: #000000" points="789.696,536.59 794.496,550.59 789.696,564.59 784.896,550.59 "/>
    <text font-size="12.7998" style="fill: #000000;text-anchor:middle;font-family:monospace;font-style:normal;font-weight:normal" x="813.727" y="586.09"/>
    <text font-size="12.7998" style="fill: #000000;text-anchor:start;font-family:monospace;font-style:normal;font-weight:normal" x="800.696" y="548.59">1</text>
    <text font-size="12.7998" style="fill: #000000;text-anchor:start;font-family:monospace;font-style:normal;font-weight:normal" x="841.758" y="623.59">1</text>
  </g>
  <g>
    <polyline style="fill: none; fill-opacity:0; stroke-width: 2; stroke: #000000" points="773.892,394.302 773.892,423.86 789.696,423.86 789.696,464.59 "/>
    <polygon style="fill: #ffffff" points="773.892,369.13 778.692,383.13 773.892,397.13 769.092,383.13 "/>
    <polygon style="fill: none; fill-opacity:0; stroke-width: 2; stroke: #000000" points="773.892,369.13 778.692,383.13 773.892,397.13 769.092,383.13 "/>
    <text font-size="12.7998" style="fill: #000000;text-anchor:middle;font-family:monospace;font-style:normal;font-weight:normal" x="781.794" y="420.86"/>
    <text font-size="12.7998" style="fill: #000000;text-anchor:start;font-family:monospace;font-style:normal;font-weight:normal" x="784.892" y="381.13">1</text>
    <text font-size="12.7998" style="fill: #000000;text-anchor:start;font-family:monospace;font-style:normal;font-weight:normal" x="793.696" y="460.59">1</text>
  </g>
  <g>
    <polyline style="fill: none; fill-opacity:0; stroke-width: 2; stroke: #000000" points="1372.9,165.549 1547.17,165.549 1547.17,202.549 1732.6,202.549 "/>
    <polygon style="fill: #ffffff" points="1347.73,165.549 1361.73,160.749 1375.73,165.549 1361.73,170.349 "/>
    <polygon style="fill: none; fill-opacity:0; stroke-width: 2; stroke: #000000" points="1347.73,165.549 1361.73,160.749 1375.73,165.549 1361.73,170.349 "/>
    <text font-size="12.7998" style="fill: #000000;text-anchor:start;font-family:monospace;font-style:normal;font-weight:normal" x="1549.17" y="181.049"/>
    <text font-size="12.7998" style="fill: #000000;text-anchor:start;font-family:monospace;font-style:normal;font-weight:normal" x="1379.73" y="162.549">1</text>
    <text font-size="12.7998" style="fill: #000000;text-anchor:end;font-family:monospace;font-style:normal;font-weight:normal" x="1728.6" y="199.549">1</text>
  </g>
  <g>
    <polyline style="fill: none; fill-opacity:0; stroke-width: 2; stroke: #000000" points="161.942,176.59 102.606,176.59 102.606,390.83 32.0982,390.83 "/>
    <polygon style="fill: #ffffff" points="187.114,176.59 173.114,181.39 159.114,176.59 173.114,171.79 "/>
    <polygon style="fill: none; fill-opacity:0; stroke-width: 2; stroke: #000000" points="187.114,176.59 173.114,181.39 159.114,176.59 173.114,171.79 "/>
    <text font-size="12.7998" style="fill: #000000;text-anchor:start;font-family:monospace;font-style:normal;font-weight:normal" x="104.606" y="280.71"/>
    <text font-size="12.7998" style="fill: #000000;text-anchor:end;font-family:monospace;font-style:normal;font-weight:normal" x="155.114" y="173.59">0..*</text>
    <text font-size="12.7998" style="fill: #000000;text-anchor:start;font-family:monospace;font-style:normal;font-weight:normal" x="36.0982" y="387.83">1</text>
  </g>
  <g>
    <polyline style="fill: none; fill-opacity:0; stroke-width: 2; stroke-dasharray: 8; stroke: #000000" points="731.784,-10.5308 365.364,-10.5308 365.364,147.885 "/>
    <polyline style="fill: none; fill-opacity:0; stroke-width: 2; stroke: #000000" points="360.364,135.237 365.364,151.237 370.364,135.237 "/>
  </g>
  <g>
    <polyline style="fill: none; fill-opacity:0; stroke-width: 2; stroke-dasharray: 8; stroke: #000000" points="1553.02,370.55 1574.02,370.55 1574.02,264.05 1499.31,264.05 "/>
    <polyline style="fill: none; fill-opacity:0; stroke-width: 2; stroke: #000000" points="1511.96,259.05 1495.96,264.05 1511.96,269.05 "/>
  </g>
  <g>
    <polyline style="fill: none; fill-opacity:0; stroke-width: 2; stroke-dasharray: 8; stroke: #000000" points="881.258,641.59 1046.44,641.59 1046.44,386.55 1212.91,386.55 "/>
    <polyline style="fill: none; fill-opacity:0; stroke-width: 2; stroke: #000000" points="1200.27,391.55 1216.27,386.55 1200.27,381.55 "/>
  </g>
  <g>
    <polyline style="fill: none; fill-opacity:0; stroke-width: 2; stroke: #000000" points="57.2698,458.83 386.26,458.83 386.26,750.73 1141.48,750.73 1141.48,422.55 1219.62,422.55 "/>
    <polygon style="fill: #ffffff" points="32.0982,458.83 46.0982,454.03 60.0982,458.83 46.0982,463.63 "/>
    <polygon style="fill: none; fill-opacity:0; stroke-width: 2; stroke: #000000" points="32.0982,458.83 46.0982,454.03 60.0982,458.83 46.0982,463.63 "/>
    <text font-size="12.7998" style="fill: #000000;text-anchor:middle;font-family:monospace;font-style:normal;font-weight:normal" x="763.87" y="747.73"/>
    <text font-size="12.7998" style="fill: #000000;text-anchor:start;font-family:monospace;font-style:normal;font-weight:normal" x="64.0982" y="455.83">0..*</text>
    <text font-size="12.7998" style="fill: #000000;text-anchor:end;font-family:monospace;font-style:normal;font-weight:normal" x="1215.62" y="419.55">1</text>
  </g>
  <g>
    <rect style="fill: #ffffff" x="1977.18" y="175.749" width="102.35" height="28"/>
    <rect style="fill: none; fill-opacity:0; stroke-width: 2; stroke: #000000" x="1977.18" y="175.749" width="102.35" height="28"/>
    <text font-size="16" style="fill: #000000;text-anchor:middle;font-family:sans-serif;font-style:normal;font-weight:700" x="2028.36" y="194.749">QueryMap</text>
    <rect style="fill: #ffffff" x="1977.18" y="203.749" width="102.35" height="8"/>
    <rect style="fill: none; fill-opacity:0; stroke-width: 2; stroke: #000000" x="1977.18" y="203.749" width="102.35" height="8"/>
    <rect style="fill: #ffffff" x="1977.18" y="211.749" width="102.35" height="20"/>
    <rect style="fill: none; fill-opacity:0; stroke-width: 2; stroke: #000000" x="1977.18" y="211.749" width="102.35" height="20"/>
    <text font-size="12.8" style="fill: #000000;text-anchor:start;font-family:monospace;font-style:normal;font-weight:normal" x="1980.18" y="225.749">+query()</text>
  </g>
  <g>
    <polyline style="fill: none; fill-opacity:0; stroke-width: 2; stroke: #000000" points="1914.08,170.549 1940.04,170.549 1940.04,189.749 1977.18,189.749 "/>
    <polygon style="fill: #ffffff" points="1888.9,170.549 1902.9,165.749 1916.9,170.549 1902.9,175.349 "/>
    <polygon style="fill: none; fill-opacity:0; stroke-width: 2; stroke: #000000" points="1888.9,170.549 1902.9,165.749 1916.9,170.549 1902.9,175.349 "/>
    <text font-size="12.7998" style="fill: #000000;text-anchor:start;font-family:monospace;font-style:normal;font-weight:normal" x="1942.04" y="177.149"/>
    <text font-size="12.7998" style="fill: #000000;text-anchor:start;font-family:monospace;font-style:normal;font-weight:normal" x="1920.9" y="167.549">1</text>
    <text font-size="12.7998" style="fill: #000000;text-anchor:end;font-family:monospace;font-style:normal;font-weight:normal" x="1973.18" y="186.749">1</text>
  </g>
  <g>
    <polyline style="fill: none; fill-opacity:0; stroke-width: 2; stroke-dasharray: 8; stroke: #000000" points="543.614,216.59 627.228,216.59 627.228,319.13 712.137,319.13 "/>
    <polyline style="fill: none; fill-opacity:0; stroke-width: 2; stroke: #000000" points="699.489,324.13 715.489,319.13 699.489,314.13 "/>
  </g>
  <g>
    <polyline style="fill: none; fill-opacity:0; stroke-width: 2; stroke-dasharray: 8; stroke: #000000" points="543.614,176.59 1036,176.59 1036,165.549 1230.92,165.549 "/>
    <polyline style="fill: none; fill-opacity:0; stroke-width: 2; stroke: #000000" points="1218.28,170.549 1234.28,165.549 1218.28,160.549 "/>
  </g>
  <g>
    <polyline style="fill: none; fill-opacity:0; stroke-width: 2; stroke-dasharray: 8; stroke: #000000" points="828.942,319.13 1148,319.13 1148,253.549 1230.92,253.549 "/>
    <polyline style="fill: none; fill-opacity:0; stroke-width: 2; stroke: #000000" points="1218.28,258.549 1234.28,253.549 1218.28,248.549 "/>
  </g>
  <g>
    <rect style="fill: #ffffff" x="1643.53" y="455.594" width="85.3516" height="44"/>
    <rect style="fill: none; fill-opacity:0; stroke-width: 2; stroke: #000000" x="1643.53" y="455.594" width="85.3516" height="44"/>
    <text font-size="12.8" style="fill: #000000;text-anchor:middle;font-family:monospace;font-style:normal;font-weight:normal" x="1686.21" y="471.594">&lt;&lt;enum&gt;&gt;</text>
    <text font-size="16" style="fill: #000000;text-anchor:middle;font-family:sans-serif;font-style:normal;font-weight:700" x="1686.21" y="490.594">CellType</text>
    <rect style="fill: #ffffff" x="1643.53" y="499.594" width="85.3516" height="116"/>
    <rect style="fill: none; fill-opacity:0; stroke-width: 2; stroke: #000000" x="1643.53" y="499.594" width="85.3516" height="116"/>
    <text font-size="12.8" style="fill: #000000;text-anchor:start;font-family:monospace;font-style:normal;font-weight:normal" x="1646.53" y="513.594"> EMPTY</text>
    <text font-size="12.8" style="fill: #000000;text-anchor:start;font-family:monospace;font-style:normal;font-weight:normal" x="1646.53" y="529.594"> SAPLING</text>
    <text font-size="12.8" style="fill: #000000;text-anchor:start;font-family:monospace;font-style:normal;font-weight:normal" x="1646.53" y="545.594"> BUSH</text>
    <text font-size="12.8" style="fill: #000000;text-anchor:start;font-family:monospace;font-style:normal;font-weight:normal" x="1646.53" y="561.594"> TREE</text>
    <text font-size="12.8" style="fill: #000000;text-anchor:start;font-family:monospace;font-style:normal;font-weight:normal" x="1646.53" y="577.594"> FIRE</text>
    <text font-size="12.8" style="fill: #000000;text-anchor:start;font-family:monospace;font-style:normal;font-weight:normal" x="1646.53" y="593.594"> ASH</text>
    <text font-size="12.8" style="fill: #000000;text-anchor:start;font-family:monospace;font-style:normal;font-weight:normal" x="1646.53" y="609.594"> INFECTED</text>
    <rect style="fill: #ffffff" x="1643.53" y="615.594" width="85.3516" height="8"/>
    <rect style="fill: none; fill-opacity:0; stroke-width: 2; stroke: #000000" x="1643.53" y="615.594" width="85.3516" height="8"/>
  </g>
  <g>
    <polyline style="fill: none; fill-opacity:0; stroke-width: 2; stroke: #000000" points="1559.26,557.438 1595.81,557.438 1595.81,557.594 1643.53,557.594 "/>
    <polygon style="fill: #000000" points="1534.09,557.438 1548.09,552.638 1562.09,557.438 1548.09,562.238 "/>
    <polygon style="fill: none; fill-opacity:0; stroke-width: 2; stroke: #000000" points="1534.09,557.438 1548.09,552.638 1562.09,557.438 1548.09,562.238 "/>
    <text font-size="12.7998" style="fill: #000000;text-anchor:start;font-family:monospace;font-style:normal;font-weight:normal" x="1597.81" y="554.516"/>
    <text font-size="12.7998" style="fill: #000000;text-anchor:start;font-family:monospace;font-style:normal;font-weight:normal" x="1566.09" y="554.438">1</text>
    <text font-size="12.7998" style="fill: #000000;text-anchor:end;font-family:monospace;font-style:normal;font-weight:normal" x="1639.53" y="554.594">1</text>
  </g>
  <g>
    <rect style="fill: #ffffff" x="190" y="538.5" width="71.6" height="44"/>
    <rect style="fill: none; fill-opacity:0; stroke-width: 2; stroke: #000000" x="190" y="538.5" width="71.6" height="44"/>
    <text font-size="12.8" style="fill: #000000;text-anchor:middle;font-family:monospace;font-style:normal;font-weight:normal" x="225.8" y="554.5">&lt;&lt;enum&gt;&gt;</text>
    <text font-size="16" style="fill: #000000;text-anchor:middle;font-family:sans-serif;font-style:normal;font-weight:700" x="225.8" y="573.5">Mode</text>
    <rect style="fill: #ffffff" x="190" y="582.5" width="71.6" height="52"/>
    <rect style="fill: none; fill-opacity:0; stroke-width: 2; stroke: #000000" x="190" y="582.5" width="71.6" height="52"/>
    <text font-size="12.8" style="fill: #000000;text-anchor:start;font-family:monospace;font-style:normal;font-weight:normal" x="193" y="596.5">+NORMAL</text>
    <text font-size="12.8" style="fill: #000000;text-anchor:start;font-family:monospace;font-style:normal;font-weight:normal" x="193" y="612.5">+FIRE</text>
    <text font-size="12.8" style="fill: #000000;text-anchor:start;font-family:monospace;font-style:normal;font-weight:normal" x="193" y="628.5">+SWARM</text>
    <rect style="fill: #ffffff" x="190" y="634.5" width="71.6" height="8"/>
    <rect style="fill: none; fill-opacity:0; stroke-width: 2; stroke: #000000" x="190" y="634.5" width="71.6" height="8"/>
  </g>
  <g>
    <polyline style="fill: none; fill-opacity:0; stroke-width: 2; stroke: #000000" points="-49.9018,510.002 -49.9018,518.665 225.8,518.665 225.8,538.5 "/>
    <polygon style="fill: #000000" points="-49.9018,484.83 -45.1018,498.83 -49.9018,512.83 -54.7018,498.83 "/>
    <polygon style="fill: none; fill-opacity:0; stroke-width: 2; stroke: #000000" points="-49.9018,484.83 -45.1018,498.83 -49.9018,512.83 -54.7018,498.83 "/>
    <text font-size="12.7998" style="fill: #000000;text-anchor:start;font-family:monospace;font-style:normal;font-weight:normal" x="-38.9018" y="496.83">1</text>
    <text font-size="12.7998" style="fill: #000000;text-anchor:start;font-family:monospace;font-style:normal;font-weight:normal" x="229.8" y="534.5">1</text>
  </g>
</svg>
